^C:\USERS\USER\DOCUMENTS\VISUAL STUDIO 2013\PROJECTS\YONIANDLIOR_PROJECT\YONIANDLIOR_PROJECT\DATABASE.CPP|C:\USERS\USER\DOCUMENTS\VISUAL STUDIO 2013\PROJECTS\YONIANDLIOR_PROJECT\YONIANDLIOR_PROJECT\GAME.CPP|C:\USERS\USER\DOCUMENTS\VISUAL STUDIO 2013\PROJECTS\YONIANDLIOR_PROJECT\YONIANDLIOR_PROJECT\HELPER.CPP|C:\USERS\USER\DOCUMENTS\VISUAL STUDIO 2013\PROJECTS\YONIANDLIOR_PROJECT\YONIANDLIOR_PROJECT\QUESTION.CPP|C:\USERS\USER\DOCUMENTS\VISUAL STUDIO 2013\PROJECTS\YONIANDLIOR_PROJECT\YONIANDLIOR_PROJECT\RECIEVEDMESSAGE.CPP|C:\USERS\USER\DOCUMENTS\VISUAL STUDIO 2013\PROJECTS\YONIANDLIOR_PROJECT\YONIANDLIOR_PROJECT\ROOM.CPP|C:\USERS\USER\DOCUMENTS\VISUAL STUDIO 2013\PROJECTS\YONIANDLIOR_PROJECT\YONIANDLIOR_PROJECT\SOURCE.CPP|C:\USERS\USER\DOCUMENTS\VISUAL STUDIO 2013\PROJECTS\YONIANDLIOR_PROJECT\YONIANDLIOR_PROJECT\TRIVIASERVER.CPP|C:\USERS\USER\DOCUMENTS\VISUAL STUDIO 2013\PROJECTS\YONIANDLIOR_PROJECT\YONIANDLIOR_PROJECT\USER.CPP|C:\USERS\USER\DOCUMENTS\VISUAL STUDIO 2013\PROJECTS\YONIANDLIOR_PROJECT\YONIANDLIOR_PROJECT\VALIDATOR.CPP|C:\USERS\USER\DOCUMENTS\VISUAL STUDIO 2013\PROJECTS\YONIANDLIOR_PROJECT\YONIANDLIOR_PROJECT\WSAINITIALIZER.CPP
C:\USERS\USER\DOCUMENTS\VISUAL STUDIO 2013\PROJECTS\YONIANDLIOR_PROJECT\YONIANDLIOR_PROJECT\X64\DEBUG\VC120.PDB
C:\USERS\USER\DOCUMENTS\VISUAL STUDIO 2013\PROJECTS\YONIANDLIOR_PROJECT\YONIANDLIOR_PROJECT\X64\DEBUG\VC120.IDB
C:\USERS\USER\DOCUMENTS\VISUAL STUDIO 2013\PROJECTS\YONIANDLIOR_PROJECT\YONIANDLIOR_PROJECT\X64\DEBUG\DATABASE.OBJ
C:\USERS\USER\DOCUMENTS\VISUAL STUDIO 2013\PROJECTS\YONIANDLIOR_PROJECT\YONIANDLIOR_PROJECT\X64\DEBUG\GAME.OBJ
C:\USERS\USER\DOCUMENTS\VISUAL STUDIO 2013\PROJECTS\YONIANDLIOR_PROJECT\YONIANDLIOR_PROJECT\X64\DEBUG\HELPER.OBJ
C:\USERS\USER\DOCUMENTS\VISUAL STUDIO 2013\PROJECTS\YONIANDLIOR_PROJECT\YONIANDLIOR_PROJECT\X64\DEBUG\QUESTION.OBJ
C:\USERS\USER\DOCUMENTS\VISUAL STUDIO 2013\PROJECTS\YONIANDLIOR_PROJECT\YONIANDLIOR_PROJECT\X64\DEBUG\RECIEVEDMESSAGE.OBJ
C:\USERS\USER\DOCUMENTS\VISUAL STUDIO 2013\PROJECTS\YONIANDLIOR_PROJECT\YONIANDLIOR_PROJECT\X64\DEBUG\ROOM.OBJ
C:\USERS\USER\DOCUMENTS\VISUAL STUDIO 2013\PROJECTS\YONIANDLIOR_PROJECT\YONIANDLIOR_PROJECT\X64\DEBUG\SOURCE.OBJ
C:\USERS\USER\DOCUMENTS\VISUAL STUDIO 2013\PROJECTS\YONIANDLIOR_PROJECT\YONIANDLIOR_PROJECT\X64\DEBUG\TRIVIASERVER.OBJ
C:\USERS\USER\DOCUMENTS\VISUAL STUDIO 2013\PROJECTS\YONIANDLIOR_PROJECT\YONIANDLIOR_PROJECT\X64\DEBUG\USER.OBJ
C:\USERS\USER\DOCUMENTS\VISUAL STUDIO 2013\PROJECTS\YONIANDLIOR_PROJECT\YONIANDLIOR_PROJECT\X64\DEBUG\VALIDATOR.OBJ
C:\USERS\USER\DOCUMENTS\VISUAL STUDIO 2013\PROJECTS\YONIANDLIOR_PROJECT\YONIANDLIOR_PROJECT\X64\DEBUG\WSAINITIALIZER.OBJ
^C:\USERS\USER\DOCUMENTS\VISUAL STUDIO 2013\PROJECTS\YONIANDLIOR_PROJECT\YONIANDLIOR_PROJECT\DATABASE.CPP
C:\USERS\USER\DOCUMENTS\VISUAL STUDIO 2013\PROJECTS\YONIANDLIOR_PROJECT\YONIANDLIOR_PROJECT\X64\DEBUG\VC120.PDB
C:\USERS\USER\DOCUMENTS\VISUAL STUDIO 2013\PROJECTS\YONIANDLIOR_PROJECT\YONIANDLIOR_PROJECT\X64\DEBUG\VC120.IDB
C:\USERS\USER\DOCUMENTS\VISUAL STUDIO 2013\PROJECTS\YONIANDLIOR_PROJECT\YONIANDLIOR_PROJECT\X64\DEBUG\DATABASE.OBJ
^C:\USERS\USER\DOCUMENTS\VISUAL STUDIO 2013\PROJECTS\YONIANDLIOR_PROJECT\YONIANDLIOR_PROJECT\GAME.CPP
C:\USERS\USER\DOCUMENTS\VISUAL STUDIO 2013\PROJECTS\YONIANDLIOR_PROJECT\YONIANDLIOR_PROJECT\X64\DEBUG\VC120.PDB
^C:\USERS\USER\DOCUMENTS\VISUAL STUDIO 2013\PROJECTS\YONIANDLIOR_PROJECT\YONIANDLIOR_PROJECT\HELPER.CPP
C:\USERS\USER\DOCUMENTS\VISUAL STUDIO 2013\PROJECTS\YONIANDLIOR_PROJECT\YONIANDLIOR_PROJECT\X64\DEBUG\VC120.PDB
^C:\USERS\USER\DOCUMENTS\VISUAL STUDIO 2013\PROJECTS\YONIANDLIOR_PROJECT\YONIANDLIOR_PROJECT\QUESTION.CPP
C:\USERS\USER\DOCUMENTS\VISUAL STUDIO 2013\PROJECTS\YONIANDLIOR_PROJECT\YONIANDLIOR_PROJECT\X64\DEBUG\VC120.PDB
^C:\USERS\USER\DOCUMENTS\VISUAL STUDIO 2013\PROJECTS\YONIANDLIOR_PROJECT\YONIANDLIOR_PROJECT\RECIEVEDMESSAGE.CPP
C:\USERS\USER\DOCUMENTS\VISUAL STUDIO 2013\PROJECTS\YONIANDLIOR_PROJECT\YONIANDLIOR_PROJECT\X64\DEBUG\VC120.PDB
^C:\USERS\USER\DOCUMENTS\VISUAL STUDIO 2013\PROJECTS\YONIANDLIOR_PROJECT\YONIANDLIOR_PROJECT\ROOM.CPP
C:\USERS\USER\DOCUMENTS\VISUAL STUDIO 2013\PROJECTS\YONIANDLIOR_PROJECT\YONIANDLIOR_PROJECT\X64\DEBUG\VC120.PDB
^C:\USERS\USER\DOCUMENTS\VISUAL STUDIO 2013\PROJECTS\YONIANDLIOR_PROJECT\YONIANDLIOR_PROJECT\SOURCE.CPP
C:\USERS\USER\DOCUMENTS\VISUAL STUDIO 2013\PROJECTS\YONIANDLIOR_PROJECT\YONIANDLIOR_PROJECT\X64\DEBUG\VC120.PDB
^C:\USERS\USER\DOCUMENTS\VISUAL STUDIO 2013\PROJECTS\YONIANDLIOR_PROJECT\YONIANDLIOR_PROJECT\TRIVIASERVER.CPP
C:\USERS\USER\DOCUMENTS\VISUAL STUDIO 2013\PROJECTS\YONIANDLIOR_PROJECT\YONIANDLIOR_PROJECT\X64\DEBUG\VC120.PDB
C:\USERS\USER\DOCUMENTS\VISUAL STUDIO 2013\PROJECTS\YONIANDLIOR_PROJECT\YONIANDLIOR_PROJECT\X64\DEBUG\VC120.IDB
^C:\USERS\USER\DOCUMENTS\VISUAL STUDIO 2013\PROJECTS\YONIANDLIOR_PROJECT\YONIANDLIOR_PROJECT\USER.CPP
C:\USERS\USER\DOCUMENTS\VISUAL STUDIO 2013\PROJECTS\YONIANDLIOR_PROJECT\YONIANDLIOR_PROJECT\X64\DEBUG\VC120.PDB
C:\USERS\USER\DOCUMENTS\VISUAL STUDIO 2013\PROJECTS\YONIANDLIOR_PROJECT\YONIANDLIOR_PROJECT\X64\DEBUG\VC120.IDB
C:\USERS\USER\DOCUMENTS\VISUAL STUDIO 2013\PROJECTS\YONIANDLIOR_PROJECT\YONIANDLIOR_PROJECT\X64\DEBUG\USER.OBJ
^C:\USERS\USER\DOCUMENTS\VISUAL STUDIO 2013\PROJECTS\YONIANDLIOR_PROJECT\YONIANDLIOR_PROJECT\VALIDATOR.CPP
C:\USERS\USER\DOCUMENTS\VISUAL STUDIO 2013\PROJECTS\YONIANDLIOR_PROJECT\YONIANDLIOR_PROJECT\X64\DEBUG\VC120.PDB
^C:\USERS\USER\DOCUMENTS\VISUAL STUDIO 2013\PROJECTS\YONIANDLIOR_PROJECT\YONIANDLIOR_PROJECT\WSAINITIALIZER.CPP
C:\USERS\USER\DOCUMENTS\VISUAL STUDIO 2013\PROJECTS\YONIANDLIOR_PROJECT\YONIANDLIOR_PROJECT\X64\DEBUG\VC120.PDB
^C:\USERS\USER\DOCUMENTS\VISUAL STUDIO 2013\PROJECTS\YONIANDLIOR_PROJECT\YONIANDLIOR_PROJECT\SQLITE3.C
C:\USERS\USER\DOCUMENTS\VISUAL STUDIO 2013\PROJECTS\YONIANDLIOR_PROJECT\YONIANDLIOR_PROJECT\X64\DEBUG\VC120.PDB
C:\USERS\USER\DOCUMENTS\VISUAL STUDIO 2013\PROJECTS\YONIANDLIOR_PROJECT\YONIANDLIOR_PROJECT\X64\DEBUG\VC120.IDB
C:\USERS\USER\DOCUMENTS\VISUAL STUDIO 2013\PROJECTS\YONIANDLIOR_PROJECT\YONIANDLIOR_PROJECT\X64\DEBUG\SQLITE3.OBJ
^C:\USERS\USER\DOCUMENTS\VISUAL STUDIO 2013\PROJECTS\YONIANDLIOR_PROJECT\YONIANDLIOR_PROJECT\DATABASE.CPP|C:\USERS\USER\DOCUMENTS\VISUAL STUDIO 2013\PROJECTS\YONIANDLIOR_PROJECT\YONIANDLIOR_PROJECT\GAME.CPP|C:\USERS\USER\DOCUMENTS\VISUAL STUDIO 2013\PROJECTS\YONIANDLIOR_PROJECT\YONIANDLIOR_PROJECT\QUESTION.CPP|C:\USERS\USER\DOCUMENTS\VISUAL STUDIO 2013\PROJECTS\YONIANDLIOR_PROJECT\YONIANDLIOR_PROJECT\RECIEVEDMESSAGE.CPP|C:\USERS\USER\DOCUMENTS\VISUAL STUDIO 2013\PROJECTS\YONIANDLIOR_PROJECT\YONIANDLIOR_PROJECT\ROOM.CPP|C:\USERS\USER\DOCUMENTS\VISUAL STUDIO 2013\PROJECTS\YONIANDLIOR_PROJECT\YONIANDLIOR_PROJECT\SOURCE.CPP|C:\USERS\USER\DOCUMENTS\VISUAL STUDIO 2013\PROJECTS\YONIANDLIOR_PROJECT\YONIANDLIOR_PROJECT\TRIVIASERVER.CPP|C:\USERS\USER\DOCUMENTS\VISUAL STUDIO 2013\PROJECTS\YONIANDLIOR_PROJECT\YONIANDLIOR_PROJECT\USER.CPP|C:\USERS\USER\DOCUMENTS\VISUAL STUDIO 2013\PROJECTS\YONIANDLIOR_PROJECT\YONIANDLIOR_PROJECT\VALIDATOR.CPP
C:\USERS\USER\DOCUMENTS\VISUAL STUDIO 2013\PROJECTS\YONIANDLIOR_PROJECT\YONIANDLIOR_PROJECT\X64\DEBUG\VC120.PDB
C:\USERS\USER\DOCUMENTS\VISUAL STUDIO 2013\PROJECTS\YONIANDLIOR_PROJECT\YONIANDLIOR_PROJECT\X64\DEBUG\VC120.IDB
C:\USERS\USER\DOCUMENTS\VISUAL STUDIO 2013\PROJECTS\YONIANDLIOR_PROJECT\YONIANDLIOR_PROJECT\X64\DEBUG\DATABASE.OBJ
C:\USERS\USER\DOCUMENTS\VISUAL STUDIO 2013\PROJECTS\YONIANDLIOR_PROJECT\YONIANDLIOR_PROJECT\X64\DEBUG\TRIVIASERVER.OBJ
^C:\USERS\USER\DOCUMENTS\VISUAL STUDIO 2013\PROJECTS\YONIANDLIOR_PROJECT\YONIANDLIOR_PROJECT\RECIEVEDMESSAGE.CPP|C:\USERS\USER\DOCUMENTS\VISUAL STUDIO 2013\PROJECTS\YONIANDLIOR_PROJECT\YONIANDLIOR_PROJECT\ROOM.CPP|C:\USERS\USER\DOCUMENTS\VISUAL STUDIO 2013\PROJECTS\YONIANDLIOR_PROJECT\YONIANDLIOR_PROJECT\SOURCE.CPP|C:\USERS\USER\DOCUMENTS\VISUAL STUDIO 2013\PROJECTS\YONIANDLIOR_PROJECT\YONIANDLIOR_PROJECT\TRIVIASERVER.CPP|C:\USERS\USER\DOCUMENTS\VISUAL STUDIO 2013\PROJECTS\YONIANDLIOR_PROJECT\YONIANDLIOR_PROJECT\USER.CPP|C:\USERS\USER\DOCUMENTS\VISUAL STUDIO 2013\PROJECTS\YONIANDLIOR_PROJECT\YONIANDLIOR_PROJECT\VALIDATOR.CPP
C:\USERS\USER\DOCUMENTS\VISUAL STUDIO 2013\PROJECTS\YONIANDLIOR_PROJECT\YONIANDLIOR_PROJECT\X64\DEBUG\VC120.PDB
C:\USERS\USER\DOCUMENTS\VISUAL STUDIO 2013\PROJECTS\YONIANDLIOR_PROJECT\YONIANDLIOR_PROJECT\X64\DEBUG\VC120.IDB
C:\USERS\USER\DOCUMENTS\VISUAL STUDIO 2013\PROJECTS\YONIANDLIOR_PROJECT\YONIANDLIOR_PROJECT\X64\DEBUG\SOURCE.OBJ
C:\USERS\USER\DOCUMENTS\VISUAL STUDIO 2013\PROJECTS\YONIANDLIOR_PROJECT\YONIANDLIOR_PROJECT\X64\DEBUG\RECIEVEDMESSAGE.OBJ
